com/collection/jackpot/exception/JackpotNotFoundException.class
com/collection/jackpot/model/Casino.class
com/collection/jackpot/exception/GraphQLErrorAdapter.class
com/collection/jackpot/model/CasinoInput.class
com/collection/jackpot/model/JackpotInput.class
com/collection/jackpot/service/JackpotService.class
com/collection/jackpot/mutation/EditJackpotDebugMutationResolver.class
com/collection/jackpot/query/CollectionQueryResolver.class
com/collection/jackpot/model/JackpotCollectionElem.class
com/collection/jackpot/exception/ParseJsonException.class
com/collection/jackpot/mutation/AddJackpotMutationResolver.class
com/collection/jackpot/controller/JackpotController.class
com/collection/jackpot/query/JackpotQueryResolver.class
com/collection/jackpot/model/JackpotJson.class
com/collection/jackpot/JackpotApplication.class
com/collection/jackpot/mutation/DeleteJackpotMutationResolver.class
com/collection/jackpot/model/Jackpot.class
com/collection/jackpot/exception/ServiceSqlException.class
